{
	"id": "31701688-304e-4634-936d-27888831f5da",
	"name": "devEnvironment",
	"values": [
		{
			"key": "checkin",
			"value": "",
			"type": "default",
			"enabled": true
		},
		{
			"key": "token",
			"value": "",
			"type": "any",
			"enabled": true
		},
		{
			"key": "id",
			"value": "",
			"type": "any",
			"enabled": true
		},
		{
			"key": "userId",
			"value": "",
			"type": "any",
			"enabled": true
		},
		{
			"key": "projectID",
			"value": "",
			"type": "any",
			"enabled": true
		}
	],
	"_postman_variable_scope": "environment",
	"_postman_exported_at": "2023-04-07T01:40:04.713Z",
	"_postman_exported_using": "Postman/10.12.9"
}